{
  "channels": [
    "defaults"
  ],
  "conda_build_version": "3.0.27",
  "conda_private": false,
  "conda_version": "4.3.30",
  "description": "Redis is an in-memory data structure store,used as database, cache and message broker.\nIt supports data structures such as strings, hashes, lists, sets, sorted sets with range queries,\nbitmaps, hyperloglogs and geospatial indexes with radius queries.\n",
  "dev_url": "https://github.com/antirez/redis",
  "doc_source_url": "https://github.com/antirez/redis/graphs/contributors",
  "doc_url": "http://redis.io/documentation",
  "env_vars": {
    "CIO_TEST": "<not set>",
    "CONDA_DEFAULT_ENV": "<not set>",
    "CONDA_ENVS_PATH": "<not set>",
    "PATH": "C:\\Miniconda3;C:\\Miniconda3\\Library\\mingw-w64\\bin;C:\\Miniconda3\\Library\\usr\\bin;C:\\Miniconda3\\Library\\bin;C:\\Miniconda3\\Scripts;C:\\Program Files (x86)\\Common Files\\Intel\\Shared Libraries\\redist\\intel64\\mpirt;C:\\Program Files (x86)\\Common Files\\Intel\\Shared Libraries\\redist\\intel64\\compiler;C:\\Program Files (x86)\\Common Files\\Intel\\Shared Libraries\\redist\\ia32\\mpirt;C:\\Program Files (x86)\\Common Files\\Intel\\Shared Libraries\\redist\\ia32\\compiler;C:\\Program Files (x86)\\Common Files\\Intel\\Shared Libraries\\redist\\intel64_win\\mpirt;C:\\Program Files (x86)\\Common Files\\Intel\\Shared Libraries\\redist\\ia32_win\\mpirt;C:\\Program Files (x86)\\Common Files\\Intel\\Shared Libraries\\redist\\intel64_win\\compiler;C:\\Program Files (x86)\\Common Files\\Intel\\Shared Libraries\\redist\\ia32_win\\compiler;C:\\WINDOWS\\system32;C:\\WINDOWS;C:\\WINDOWS\\System32\\Wbem;C:\\WINDOWS\\System32\\WindowsPowerShell\\v1.0\\;C:\\Program Files (x86)\\PuTTY\\;C:\\Program Files (x86)\\Windows Kits\\10\\Windows Performance Toolkit\\;C:\\Program Files\\TortoiseHg\\;C:\\Program Files\\TortoiseSVN\\bin;C:\\WINDOWS\\system32\\config\\systemprofile\\AppData\\Local\\Microsoft\\WindowsApps",
    "PYTHONHOME": "<not set>",
    "PYTHONPATH": "<not set>"
  },
  "home": "http://redis.io/download/",
  "license": "3-clause BSD",
  "license_family": "BSD",
  "root_pkgs": [
    "asn1crypto 0.22.0 py36h8abceb8_1",
    "beautifulsoup4 4.6.0 py36h8d810fc_0",
    "ca-certificates 2017.08.26 h94faf87_0",
    "certifi 2017.7.27.1 py36h3c58897_0",
    "cffi 1.10.0 py36h2e04625_1",
    "chardet 3.0.4 py36he79bf90_1",
    "conda 4.3.30 py36h7e176b0_0",
    "conda-build 3.0.27 py36h309a530_0",
    "conda-env 2.6.0 h36134e3_1",
    "conda-verify 2.0.0 py36h25e4270_0",
    "cryptography 2.0.3 py36h7433fbd_1",
    "filelock 2.0.6 py36had0c8b9_0",
    "git 2.11.1 0",
    "glob2 0.5 py36hb954f7e_0",
    "idna 2.6 py36hc4b3076_1",
    "jinja2 2.9.6 py36h3a72ab0_0",
    "m2-msys2-runtime 2.5.0.17080.65c939c 3",
    "m2-patch 2.7.5 2",
    "markupsafe 1.0 py36h69c920d_1",
    "menuinst 1.4.8 py36hd5eb969_0",
    "msys2-conda-epoch 20160418 1",
    "openssl 1.0.2l vc14h644fbbd_1",
    "pip 9.0.1 py36h1957c29_2",
    "pkginfo 1.4.1 py36hce4686b_0",
    "pycosat 0.6.2 py36h79c8da7_1",
    "pycparser 2.18 py36heee9fce_1",
    "pyopenssl 17.2.0 py36hbb0a1d5_0",
    "pysocks 1.6.7 py36h9282c75_1",
    "python 3.6.3 h9e2ca53_1",
    "pywin32 221 py36h9c10281_0",
    "pyyaml 3.12 py36h215f687_1",
    "requests 2.18.4 py36hd027264_1",
    "ruamel_yaml 0.11.14 py36hfbc0764_2",
    "setuptools 36.2.2 py36h3f57c66_0",
    "six 1.10.0 py36h27a2468_1",
    "urllib3 1.22 py36hdf36478_0",
    "vc 14 h2379b0c_0",
    "vs2015_runtime 14.0.25123 hd4c4e62_0",
    "wheel 0.29.0 py36ha276b5b_1",
    "wincertstore 0.2 py36h43e04a9_0",
    "win_inet_pton 1.0.1 py36h0910aa3_1",
    "yaml 0.1.7 vc14hf908fe3_1"
  ],
  "summary": "Advanced key-value cache and store"
}