{
  "arch": "x86",
  "build": "h81e342f_0",
  "build_number": 0,
  "depends": [],
  "license": "3-clause BSD",
  "license_family": "BSD",
  "name": "redis",
  "platform": "win",
  "subdir": "win-32",
  "timestamp": 1509553056847,
  "version": "3.2.100"
}