{
  "paths": [
    {
      "_path": "Library/bin/redis-benchmark.exe",
      "path_type": "hardlink",
      "sha256": "7ca08901116b08d05902ebe8d02cf29ceec3119eeec661cf3c788e94997bad1d",
      "size_in_bytes": 376320
    },
    {
      "_path": "Library/bin/redis-check-aof.exe",
      "path_type": "hardlink",
      "sha256": "cbf9e12a1e41e0be663971d7a03ac574cb69f4818759c15c780101fd337d8906",
      "size_in_bytes": 247296
    },
    {
      "_path": "Library/bin/redis-cli.exe",
      "path_type": "hardlink",
      "sha256": "6c56217622da0c22fc5da21c6776baeb2da54914c43ed993f4d4a1b94ef5f77f",
      "size_in_bytes": 435712
    },
    {
      "_path": "Library/bin/redis-server.exe",
      "path_type": "hardlink",
      "sha256": "f2f2893ab376673b4a34768dc8ccec62ea9a3e4a4a4d9e51e88d4b720cf9a634",
      "size_in_bytes": 1244160
    }
  ],
  "paths_version": 1
}